ID,phoneNumber,patlentID,name,education,countryCode,dateOperation,nchilds,age,marriageStatus,gender,anginaCCS,dyspnoea,numbarOfPreviousMyocardial,mostRecentMyocardialInfarction,congestiveHeartFailure,previousPCI,previousCardiacVascularOfThoracicSurgery,smokingHistory,weight,height,drugHistory,job,hospitalCode,dateOfBirth,city,dateOfAdmission,dateOfDischarge,dateOfLastPCI,dateOfLastCardiacSurgery,drugHX,drugHXText,equivalentDosOfSimvastatin,addiction,lastLabTest,DiabetesTreatment,hypertension,ypercholesterolaemia,historyOfKidneyDX,renal,leftVentricularFunctionEjectionFraction,LastPreOperativeCreatinine,lastPreOperaiveLabTests,choromicLungDisease,extraCardiacArteriopathy,CerebroVascuarDiseaseType,NeurolgocialDysfunction,CarotidBruits,preOperativeHeartRhythm,leftRrRightHearthCatheterization,dateOfLastCatheterization,numberOfDiseasedCoronaryVessels,leftMainStemDisease,ejectionFractionCategory,rjectionFractionValue,psaSystolic,levedp,avGradent,diseasedVessle,meanPawpLa,ivNitratesHeparinOfAnyKind,ivIntropes,ventilated,cardiogenicShok,proOperativeHeartRhythm,postOperation,postOperationLabTest,postOperationLabTestAfter24,postOperationLabTestAfter48,postOperationTreatment,durationOfIntubation,cardiopulmonary,aroticCrossClampingDuration,labp,labpCheckBox,familyHx,familyHxOfAf,exerciseToleranceTestETT,operativeUrgency,intraArorticPallonPump,cerebroVascuarDiseaseType,numberOfPreviousHearthOperations,procedureGroups,procedureGroupsNew,typeOfOperation,otherCardiac,otherNonCardiac,distalCoronaryAnastamosesArtrialConduits,distalCoronaryAnastamosesVenousConduits,vessleWhichHaveBeenGrafted,arteryIesUsedAsGrafts,otherCardiacProceduresDetails,endarterectomizeVessle,otherNonCardiacProceduresDetails,segmentsOfTheAorta,aorticProcedure,poorMobility,criticalPreoperativeState,surgeryOnThoracicAorta,pulmonaryHypertension,stenosis,sufficiency,explantType,nativeValvePathology,ReasonsForRepeatValveSurgery,valveProcedure,implantType,implantCode,implantSize,durationOfIcuStay,durationOfHospitalStay
,,,,0,,,|{'n': 0, 'status': False}|,|{'n': 0, 'status': False}|,0,0,0,0,0,0,0,0,|{'missed': False, 'none': False, 'CAB': False, 'value': False, 'other': False, 'otherText': ''}|,|{'radio': 0, 'packYear': 0, 'status': False}|,|{'n': 0, 'status': False}|,|{'n': 0, 'status': False}|,{},,,,,,,,,{},,,0,,0,0,0,False,{},0,0,|{'Hb': 0, 'bun': 0, 'cholLDL': 0, 'ptl': 0, 'fbs': 0, 'cholHDL': 0, 'wbc': 0, 'Na': 0, 'gfr': 0, 'k': 0}|,0,{},{},0,0,{},{},,0,0,0,,,,,{},,0,0,0,0,{},{},{},{},{},{},,,,0,{},{},0,0,0,0,{},0,0,{},0,0,0,,,{},{},{},{},{},{},{},0,0,0,0,|{'aorticValve': 0, 'miteralValve': 0, 'tricuspidValve': 0, 'pulmonaryValve': 0}|,|{'aorticValve': 0, 'miteralValve': 0, 'tricuspidValve': 0, 'pulmonaryValve': 0}|,|{'aorticValve': 0, 'miteralValve': 0, 'tricuspidValve': 0, 'pulmonaryValve': 0}|,|{'aorticValve': 0, 'miteralValve': 0, 'tricuspidValve': 0, 'pulmonaryValve': 0}|,|{'aorticValve': 0, 'miteralValve': 0, 'tricuspidValve': 0, 'pulmonaryValve': 0}|,|{'aorticValve': 0, 'miteralValve': 0, 'tricuspidValve': 0, 'pulmonaryValve': 0}|,|{'aorticValve': 0, 'miteralValve': 0, 'tricuspidValve': 0, 'pulmonaryValve': 0}|,|{'aorticValve': '', 'miteralValve': '', 'tricuspidValve': '', 'pulmonaryValve': ''}|,|{'aorticValve': '', 'miteralValve': '', 'tricuspidValve': '', 'pulmonaryValve': ''}|,0,0
654654,65465654,654654,654564564,0,,,|{'n': 0, 'status': False}|,|{'n': 0, 'status': False}|,0,0,0,0,0,0,0,0,|{'missed': False, 'none': False, 'CAB': False, 'value': False, 'other': False, 'otherText': ''}|,|{'radio': 0, 'packYear': 0, 'status': False}|,|{'n': 0, 'status': False}|,|{'n': 0, 'status': False}|,{},,,,,,,,,{},,,0,,0,0,0,False,{},0,0,|{'Hb': 0, 'bun': 0, 'cholLDL': 0, 'ptl': 0, 'fbs': 0, 'cholHDL': 0, 'wbc': 0, 'Na': 0, 'gfr': 0, 'k': 0}|,0,{},{},0,0,{},{},,0,0,0,,,,,{},,0,0,0,0,{},{},{},{},{},{},,,,0,{},{},0,0,0,0,{},0,0,{},0,0,0,,,{},{},{},{},{},{},{},0,0,0,0,|{'aorticValve': 0, 'miteralValve': 0, 'tricuspidValve': 0, 'pulmonaryValve': 0}|,|{'aorticValve': 0, 'miteralValve': 0, 'tricuspidValve': 0, 'pulmonaryValve': 0}|,|{'aorticValve': 0, 'miteralValve': 0, 'tricuspidValve': 0, 'pulmonaryValve': 0}|,|{'aorticValve': 0, 'miteralValve': 0, 'tricuspidValve': 0, 'pulmonaryValve': 0}|,|{'aorticValve': 0, 'miteralValve': 0, 'tricuspidValve': 0, 'pulmonaryValve': 0}|,|{'aorticValve': 0, 'miteralValve': 0, 'tricuspidValve': 0, 'pulmonaryValve': 0}|,|{'aorticValve': 0, 'miteralValve': 0, 'tricuspidValve': 0, 'pulmonaryValve': 0}|,|{'aorticValve': '', 'miteralValve': '', 'tricuspidValve': '', 'pulmonaryValve': ''}|,|{'aorticValve': '', 'miteralValve': '', 'tricuspidValve': '', 'pulmonaryValve': ''}|,0,0
